%YAML 1.1
%TAG !u! tag:unity3d.com,2011:
--- !u!1 &7195491360290036914
GameObject:
  m_ObjectHideFlags: 0
  m_CorrespondingSourceObject: {fileID: 0}
  m_PrefabInstance: {fileID: 0}
  m_PrefabAsset: {fileID: 0}
  serializedVersion: 6
  m_Component:
  - component: {fileID: 7195491360290036909}
  - component: {fileID: 7195491360290036911}
  - component: {fileID: 7195491360290036908}
  - component: {fileID: 7195491360290036905}
  - component: {fileID: 7195491360290036901}
  - component: {fileID: 7195491360290036900}
  - component: {fileID: 7195491360290036902}
  - component: {fileID: 7195491360290036910}
  - component: {fileID: 7195491360290036904}
  - component: {fileID: 7195491360290036907}
  - component: {fileID: 7195491360290036906}
  - component: {fileID: 7195491360290036903}
  - component: {fileID: 7195491360290036899}
  - component: {fileID: 7195491360290036896}
  - component: {fileID: 7195491360290036897}
  m_Layer: 0
  m_Name: FPSController
  m_TagString: Untagged
  m_Icon: {fileID: 0}
  m_NavMeshLayer: 0
  m_StaticEditorFlags: 0
  m_IsActive: 1
--- !u!4 &7195491360290036909
Transform:
  m_ObjectHideFlags: 0
  m_CorrespondingSourceObject: {fileID: 0}
  m_PrefabInstance: {fileID: 0}
  m_PrefabAsset: {fileID: 0}
  m_GameObject: {fileID: 7195491360290036914}
  m_LocalRotation: {x: -0, y: 0.66384983, z: -0, w: 0.7478659}
  m_LocalPosition: {x: 21.01, y: 2, z: -24.09}
  m_LocalScale: {x: 1, y: 1, z: 1}
  m_Children:
  - {fileID: 7195491360806385865}
  - {fileID: 7195491360484787436}
  m_Father: {fileID: 0}
  m_RootOrder: 0
  m_LocalEulerAnglesHint: {x: 0, y: 83.188, z: 0}
--- !u!114 &7195491360290036911
MonoBehaviour:
  m_ObjectHideFlags: 0
  m_CorrespondingSourceObject: {fileID: 0}
  m_PrefabInstance: {fileID: 0}
  m_PrefabAsset: {fileID: 0}
  m_GameObject: {fileID: 7195491360290036914}
  m_Enabled: 1
  m_EditorHideFlags: 0
  m_Script: {fileID: -1465209106, guid: c8d0ad23af520fe46aabe2b1fecf6462, type: 3}
  m_Name: 
  m_EditorClassIdentifier: 
  _data:
    _json: '{"declarations":{"collection":{"$content":[{"name":"MoveAxis","value":{"x":0.0,"y":0.0,"z":0.0,"$type":"UnityEngine.Vector3"},"$version":"A"},{"name":"MoveSpeed","value":{"$content":0.0,"$type":"System.Single"},"$version":"A"},{"name":"RotationAxis","value":{"x":0.0,"y":0.0,"z":0.0,"$type":"UnityEngine.Vector3"},"$version":"A"},{"name":"RotationSpeed","value":{"$content":0.0,"$type":"System.Single"},"$version":"A"},{"name":"ScaleAxis","value":{"x":0.0,"y":1.0,"z":0.0,"$type":"UnityEngine.Vector3"},"$version":"A"},{"name":"unidadDeEscalado","value":{"$content":10.0,"$type":"System.Single"},"$version":"A"},{"name":"angularSpeed","value":{"$content":30.0,"$type":"System.Single"},"$version":"A"},{"name":"moveSpeed","value":{"$content":10.0,"$type":"System.Single"},"$version":"A"},{"name":"walkSpeed","value":{"$content":5.0,"$type":"System.Single"},"$version":"A"},{"name":"hRotationSpeed","value":{"$content":100.0,"$type":"System.Single"},"$version":"A"},{"name":"vRotationSpeed","value":{"$content":80.0,"$type":"System.Single"},"$version":"A"},{"name":"cam","value":{"$content":0,"$type":"UnityEngine.Object"},"$version":"A"}],"$version":"A"},"$version":"A"}}'
    _objectReferences:
    - {fileID: 7195491360806385868}
--- !u!114 &7195491360290036908
MonoBehaviour:
  m_ObjectHideFlags: 0
  m_CorrespondingSourceObject: {fileID: 0}
  m_PrefabInstance: {fileID: 0}
  m_PrefabAsset: {fileID: 0}
  m_GameObject: {fileID: 7195491360290036914}
  m_Enabled: 0
  m_EditorHideFlags: 0
  m_Script: {fileID: -57143145, guid: a040fb66244a7f54289914d98ea4ef7d, type: 3}
  m_Name: 
  m_EditorClassIdentifier: 
  _data:
    _json: '{"nest":{"source":"Embed","macro":null,"embed":{"variables":{"collection":{"$content":[],"$version":"A"},"$version":"A"},"controlInputDefinitions":[],"controlOutputDefinitions":[],"valueInputDefinitions":[],"valueOutputDefinitions":[],"title":"Grafo
      Traslaci\u00f3n","summary":null,"pan":{"x":6.440972,"y":58.90026},"zoom":1.0,"elements":[{"coroutine":false,"defaultValues":{},"position":{"x":-923.0,"y":-266.0},"guid":"09e765aa-4bff-46b5-acf7-1bc4a7fcb3df","$version":"A","$type":"Bolt.Update","$id":"10"},{"chainable":false,"member":{"name":"ClampMagnitude","parameterTypes":["UnityEngine.Vector3","System.Single"],"targetType":"UnityEngine.Vector3","targetTypeName":"UnityEngine.Vector3","$version":"A"},"defaultValues":{"%vector":{"x":0.0,"y":0.0,"z":0.0,"$type":"UnityEngine.Vector3"},"%maxLength":{"$content":1.0,"$type":"System.Single"}},"position":{"x":-215.0,"y":-263.0},"guid":"09db82b5-60a3-4251-8b72-5583b202630c","$version":"A","$type":"Bolt.InvokeMember","$id":"12"},{"specifyFallback":false,"kind":"Object","defaultValues":{"name":{"$content":"MoveAxis","$type":"System.String"},"object":null},"position":{"x":-433.0,"y":-47.0},"guid":"b701d14b-ac11-4a97-9888-06e6a039d455","$version":"A","$type":"Bolt.GetVariable","$id":"15"},{"specifyFallback":false,"kind":"Object","defaultValues":{"name":{"$content":"MoveSpeed","$type":"System.String"},"object":null},"position":{"x":-246.0,"y":-43.0},"guid":"78762344-454a-497f-b67b-7071dfc0443a","$version":"A","$type":"Bolt.GetVariable","$id":"17"},{"member":{"name":"deltaTime","parameterTypes":null,"targetType":"UnityEngine.Time","targetTypeName":"UnityEngine.Time","$version":"A"},"defaultValues":{},"position":{"x":-338.0,"y":145.0},"guid":"7ba2d944-81df-4a62-a537-075b3474e1e8","$version":"A","$type":"Bolt.GetMember","$id":"19"},{"chainable":false,"member":{"name":"Translate","parameterTypes":["UnityEngine.Vector3"],"targetType":"UnityEngine.Transform","targetTypeName":"UnityEngine.Transform","$version":"A"},"defaultValues":{"target":null,"%translation":{"x":0.0,"y":0.0,"z":0.0,"$type":"UnityEngine.Vector3"}},"position":{"x":233.0,"y":-263.0},"guid":"1e4ed91c-b0ac-4187-bbd5-d4d3094ca5a3","$version":"A","$type":"Bolt.InvokeMember","$id":"22"},{"defaultValues":{},"position":{"x":76.0,"y":-58.0},"guid":"c81dbae1-1c3f-4b30-ab91-6ba030ed8c21","$version":"A","$type":"Bolt.GenericMultiply","$id":"25"},{"defaultValues":{},"position":{"x":-58.0,"y":123.0},"guid":"edb84160-c796-4967-b143-b655aae2a958","$version":"A","$type":"Bolt.GenericMultiply","$id":"27"},{"sourceUnit":{"$ref":"10"},"sourceKey":"trigger","destinationUnit":{"$ref":"12"},"destinationKey":"enter","guid":"d9b325dc-4874-4d49-959c-d2553e1a85bf","$type":"Bolt.ControlConnection"},{"sourceUnit":{"$ref":"12"},"sourceKey":"exit","destinationUnit":{"$ref":"22"},"destinationKey":"enter","guid":"a5abe27b-4f14-4f81-859f-026fe3c11efe","$type":"Bolt.ControlConnection"},{"sourceUnit":{"$ref":"15"},"sourceKey":"value","destinationUnit":{"$ref":"12"},"destinationKey":"%vector","guid":"7ecd6df2-fc10-4101-b341-7400b6f485aa","$type":"Bolt.ValueConnection"},{"sourceUnit":{"$ref":"19"},"sourceKey":"value","destinationUnit":{"$ref":"27"},"destinationKey":"b","guid":"a3553c6a-7ee1-41c0-b818-848cdad38a04","$type":"Bolt.ValueConnection"},{"sourceUnit":{"$ref":"27"},"sourceKey":"product","destinationUnit":{"$ref":"25"},"destinationKey":"b","guid":"882339b1-6ddb-4a6d-b284-36deb4f9d34a","$type":"Bolt.ValueConnection"},{"sourceUnit":{"$ref":"17"},"sourceKey":"value","destinationUnit":{"$ref":"27"},"destinationKey":"a","guid":"d2b00a46-ad2d-4d4d-b3a9-280da557f0cd","$type":"Bolt.ValueConnection"},{"sourceUnit":{"$ref":"12"},"sourceKey":"result","destinationUnit":{"$ref":"25"},"destinationKey":"a","guid":"984dd076-bb36-4539-a44d-b831a72ceaf4","$type":"Bolt.ValueConnection"},{"sourceUnit":{"$ref":"25"},"sourceKey":"product","destinationUnit":{"$ref":"22"},"destinationKey":"%translation","guid":"4e4a83ff-dc2a-4f06-9cb6-1ca334808b2a","$type":"Bolt.ValueConnection"}],"$version":"A"}}}'
    _objectReferences: []
--- !u!114 &7195491360290036905
MonoBehaviour:
  m_ObjectHideFlags: 0
  m_CorrespondingSourceObject: {fileID: 0}
  m_PrefabInstance: {fileID: 0}
  m_PrefabAsset: {fileID: 0}
  m_GameObject: {fileID: 7195491360290036914}
  m_Enabled: 0
  m_EditorHideFlags: 0
  m_Script: {fileID: -57143145, guid: a040fb66244a7f54289914d98ea4ef7d, type: 3}
  m_Name: 
  m_EditorClassIdentifier: 
  _data:
    _json: '{"nest":{"source":"Embed","macro":null,"embed":{"variables":{"collection":{"$content":[],"$version":"A"},"$version":"A"},"controlInputDefinitions":[],"controlOutputDefinitions":[],"valueInputDefinitions":[],"valueOutputDefinitions":[],"title":"Grafo
      Rotaci\u00f3n","summary":null,"pan":{"x":-764.5963,"y":-578.4847},"zoom":1.0,"elements":[{"coroutine":false,"defaultValues":{},"position":{"x":-388.0,"y":-1265.0},"guid":"a076a377-c433-4307-a08d-5619360af352","$version":"A","$type":"Bolt.Start"},{"coroutine":false,"defaultValues":{},"position":{"x":-1204.0,"y":-789.0},"guid":"cf4b90fc-b528-4f3b-b4e4-009f121e72ca","$version":"A","$type":"Bolt.Update","$id":"12"},{"chainable":false,"member":{"name":"ClampMagnitude","parameterTypes":["UnityEngine.Vector3","System.Single"],"targetType":"UnityEngine.Vector3","targetTypeName":"UnityEngine.Vector3","$version":"A"},"defaultValues":{"%vector":{"x":0.0,"y":0.0,"z":0.0,"$type":"UnityEngine.Vector3"},"%maxLength":{"$content":1.0,"$type":"System.Single"}},"position":{"x":-987.0,"y":-789.0},"guid":"970e2873-c8e1-4d9a-8a21-e2d07a169b2d","$version":"A","$type":"Bolt.InvokeMember","$id":"14"},{"specifyFallback":false,"kind":"Object","defaultValues":{"name":{"$content":"RotationAxis","$type":"System.String"},"object":null},"position":{"x":-1236.0,"y":-676.0},"guid":"e082823d-7902-4967-a702-81db1f4f8605","$version":"A","$type":"Bolt.GetVariable","$id":"17"},{"specifyFallback":false,"kind":"Object","defaultValues":{"name":{"$content":"RotationSpeed","$type":"System.String"},"object":null},"position":{"x":-981.0,"y":-641.0},"guid":"7bdac774-37df-4747-bd8b-6212d76b6d50","$version":"A","$type":"Bolt.GetVariable","$id":"19"},{"member":{"name":"deltaTime","parameterTypes":null,"targetType":"UnityEngine.Time","targetTypeName":"UnityEngine.Time","$version":"A"},"defaultValues":{},"position":{"x":-1234.0,"y":-495.0},"guid":"9bfb272c-b5a5-4d58-a720-461f7998f805","$version":"A","$type":"Bolt.GetMember","$id":"21"},{"defaultValues":{},"position":{"x":-755.0,"y":-526.0},"guid":"759c996a-774a-4552-a03c-c41f0c0bfab5","$version":"A","$type":"Bolt.GenericMultiply","$id":"24"},{"defaultValues":{},"position":{"x":-615.0,"y":-707.0},"guid":"befff657-aa62-4f6f-9ff0-d31b0195acdc","$version":"A","$type":"Bolt.GenericMultiply","$id":"26"},{"chainable":false,"member":{"name":"Rotate","parameterTypes":["UnityEngine.Vector3"],"targetType":"UnityEngine.Transform","targetTypeName":"UnityEngine.Transform","$version":"A"},"defaultValues":{"target":null,"%eulers":{"x":0.0,"y":0.0,"z":0.0,"$type":"UnityEngine.Vector3"}},"position":{"x":-397.0,"y":-791.0},"guid":"80d62c33-a047-434c-b8f9-077f7ce3a880","$version":"A","$type":"Bolt.InvokeMember","$id":"28"},{"sourceUnit":{"$ref":"12"},"sourceKey":"trigger","destinationUnit":{"$ref":"14"},"destinationKey":"enter","guid":"71c4329d-97b3-470a-b0a0-c84c4e2f4972","$type":"Bolt.ControlConnection"},{"sourceUnit":{"$ref":"14"},"sourceKey":"exit","destinationUnit":{"$ref":"28"},"destinationKey":"enter","guid":"b6eac4d7-0954-4085-bb03-11b33cebe1b2","$type":"Bolt.ControlConnection"},{"sourceUnit":{"$ref":"21"},"sourceKey":"value","destinationUnit":{"$ref":"24"},"destinationKey":"b","guid":"ba5f7dd5-28a5-4627-a5b0-8cfe7613c58e","$type":"Bolt.ValueConnection"},{"sourceUnit":{"$ref":"24"},"sourceKey":"product","destinationUnit":{"$ref":"26"},"destinationKey":"b","guid":"8622cf3b-bb46-4d47-a5b8-146ad18d65e0","$type":"Bolt.ValueConnection"},{"sourceUnit":{"$ref":"14"},"sourceKey":"result","destinationUnit":{"$ref":"26"},"destinationKey":"a","guid":"a828f805-1fd0-4fe5-918f-60793ce27eb1","$type":"Bolt.ValueConnection"},{"sourceUnit":{"$ref":"17"},"sourceKey":"value","destinationUnit":{"$ref":"14"},"destinationKey":"%vector","guid":"ed22be2b-5cb7-4edf-b7c7-48973bc23c01","$type":"Bolt.ValueConnection"},{"sourceUnit":{"$ref":"19"},"sourceKey":"value","destinationUnit":{"$ref":"24"},"destinationKey":"a","guid":"1e6f39e5-7b54-4090-9428-bdfd4dde01b4","$type":"Bolt.ValueConnection"},{"sourceUnit":{"$ref":"26"},"sourceKey":"product","destinationUnit":{"$ref":"28"},"destinationKey":"%eulers","guid":"056c7af2-8a9a-4202-b1a4-4b878fcfe6ca","$type":"Bolt.ValueConnection"}],"$version":"A"}}}'
    _objectReferences: []
--- !u!114 &7195491360290036901
MonoBehaviour:
  m_ObjectHideFlags: 0
  m_CorrespondingSourceObject: {fileID: 0}
  m_PrefabInstance: {fileID: 0}
  m_PrefabAsset: {fileID: 0}
  m_GameObject: {fileID: 7195491360290036914}
  m_Enabled: 0
  m_EditorHideFlags: 0
  m_Script: {fileID: -57143145, guid: a040fb66244a7f54289914d98ea4ef7d, type: 3}
  m_Name: 
  m_EditorClassIdentifier: 
  _data:
    _json: '{"nest":{"source":"Embed","macro":null,"embed":{"variables":{"collection":{"$content":[],"$version":"A"},"$version":"A"},"controlInputDefinitions":[],"controlOutputDefinitions":[],"valueInputDefinitions":[],"valueOutputDefinitions":[],"title":"CapsuleScaling","summary":null,"pan":{"x":-74.63955,"y":274.6674},"zoom":1.0,"elements":[{"coroutine":false,"defaultValues":{},"position":{"x":-565.0,"y":-154.0},"guid":"96a95558-0bda-4270-9c1d-ad061ba58cf5","$version":"A","$type":"Bolt.Start"},{"coroutine":false,"defaultValues":{},"position":{"x":-528.0,"y":24.0},"guid":"ce01dacb-fe0e-472e-8fee-0d668291750e","$version":"A","$type":"Bolt.Update","$id":"12"},{"chainable":false,"member":{"name":"ClampMagnitude","parameterTypes":["UnityEngine.Vector3","System.Single"],"targetType":"UnityEngine.Vector3","targetTypeName":"UnityEngine.Vector3","$version":"A"},"defaultValues":{"%vector":{"x":0.0,"y":0.0,"z":0.0,"$type":"UnityEngine.Vector3"},"%maxLength":{"$content":1.0,"$type":"System.Single"}},"position":{"x":-300.0,"y":22.0},"guid":"6e5f4028-72f2-4530-9b55-d3f4d868a3b5","$version":"A","$type":"Bolt.InvokeMember","$id":"14"},{"member":{"name":"deltaTime","parameterTypes":null,"targetType":"UnityEngine.Time","targetTypeName":"UnityEngine.Time","$version":"A"},"defaultValues":{},"position":{"x":-522.0,"y":396.0},"guid":"24bc35a6-7118-4107-bed4-3fe5508ebe55","$version":"A","$type":"Bolt.GetMember","$id":"17"},{"specifyFallback":false,"kind":"Object","defaultValues":{"name":{"$content":"ScaleAxis","$type":"System.String"},"object":null},"position":{"x":-517.0,"y":139.0},"guid":"34cb18b9-600d-4d32-90ed-eda3f11ed828","$version":"A","$type":"Bolt.GetVariable","$id":"20"},{"specifyFallback":false,"kind":"Object","defaultValues":{"name":{"$content":"unidadDeEscalado","$type":"System.String"},"object":null},"position":{"x":-519.0,"y":263.0},"guid":"f738df10-ef7c-415a-b8d0-8278fb984414","$version":"A","$type":"Bolt.GetVariable","$id":"22"},{"defaultValues":{},"position":{"x":-292.0,"y":302.0},"guid":"1226eaa2-3f21-4fa7-b470-c075929b680a","$version":"A","$type":"Bolt.GenericMultiply","$id":"24"},{"defaultValues":{},"position":{"x":-66.0,"y":258.0},"guid":"7b8b301a-e1b6-475d-a24e-256bad1e2c60","$version":"A","$type":"Bolt.GenericMultiply","$id":"26"},{"defaultValues":{},"position":{"x":143.0,"y":170.0},"guid":"be70f1b9-3ea7-47ec-8fbf-d2023a984a16","$version":"A","$type":"Bolt.GenericAdd","$id":"28"},{"member":{"name":"localScale","parameterTypes":null,"targetType":"UnityEngine.Transform","targetTypeName":"UnityEngine.Transform","$version":"A"},"defaultValues":{"target":null},"position":{"x":-66.0,"y":121.0},"guid":"11148549-23bd-4112-97ef-1d118e799ee2","$version":"A","$type":"Bolt.GetMember","$id":"30"},{"chainable":false,"member":{"name":"localScale","parameterTypes":null,"targetType":"UnityEngine.Transform","targetTypeName":"UnityEngine.Transform","$version":"A"},"defaultValues":{"target":null,"input":{"x":0.0,"y":0.0,"z":0.0,"$type":"UnityEngine.Vector3"}},"position":{"x":287.0,"y":24.0},"guid":"8b785e74-e6dd-49a1-a653-5bb5f192b8ae","$version":"A","$type":"Bolt.SetMember","$id":"33"},{"sourceUnit":{"$ref":"12"},"sourceKey":"trigger","destinationUnit":{"$ref":"14"},"destinationKey":"enter","guid":"90027d7d-440e-4d9d-985b-c25948949fe2","$type":"Bolt.ControlConnection"},{"sourceUnit":{"$ref":"14"},"sourceKey":"exit","destinationUnit":{"$ref":"33"},"destinationKey":"assign","guid":"def072ba-d258-4525-85db-25b7d762338b","$type":"Bolt.ControlConnection"},{"sourceUnit":{"$ref":"20"},"sourceKey":"value","destinationUnit":{"$ref":"14"},"destinationKey":"%vector","guid":"b099be4d-88a8-4fcc-bc3a-914429dc7682","$type":"Bolt.ValueConnection"},{"sourceUnit":{"$ref":"22"},"sourceKey":"value","destinationUnit":{"$ref":"24"},"destinationKey":"a","guid":"542a2bac-76e5-412f-b1bf-630c5d05d231","$type":"Bolt.ValueConnection"},{"sourceUnit":{"$ref":"17"},"sourceKey":"value","destinationUnit":{"$ref":"24"},"destinationKey":"b","guid":"17655935-7101-4125-81dc-b63f6d8e5aef","$type":"Bolt.ValueConnection"},{"sourceUnit":{"$ref":"14"},"sourceKey":"result","destinationUnit":{"$ref":"26"},"destinationKey":"a","guid":"3ce76d5e-c665-4fa1-80de-06bd20c945c1","$type":"Bolt.ValueConnection"},{"sourceUnit":{"$ref":"24"},"sourceKey":"product","destinationUnit":{"$ref":"26"},"destinationKey":"b","guid":"f96ae3ac-cb4b-4732-95b8-36494c368d65","$type":"Bolt.ValueConnection"},{"sourceUnit":{"$ref":"26"},"sourceKey":"product","destinationUnit":{"$ref":"28"},"destinationKey":"b","guid":"2ca11d46-2a93-4e50-9121-a97bdc2b59a1","$type":"Bolt.ValueConnection"},{"sourceUnit":{"$ref":"30"},"sourceKey":"value","destinationUnit":{"$ref":"28"},"destinationKey":"a","guid":"6e2fbc23-421f-4357-8b59-3430aa5231e7","$type":"Bolt.ValueConnection"},{"sourceUnit":{"$ref":"28"},"sourceKey":"sum","destinationUnit":{"$ref":"33"},"destinationKey":"input","guid":"86c77769-9735-4bf3-85e7-4ce074a70ebb","$type":"Bolt.ValueConnection"}],"$version":"A"}}}'
    _objectReferences: []
--- !u!114 &7195491360290036900
MonoBehaviour:
  m_ObjectHideFlags: 0
  m_CorrespondingSourceObject: {fileID: 0}
  m_PrefabInstance: {fileID: 0}
  m_PrefabAsset: {fileID: 0}
  m_GameObject: {fileID: 7195491360290036914}
  m_Enabled: 0
  m_EditorHideFlags: 0
  m_Script: {fileID: -57143145, guid: a040fb66244a7f54289914d98ea4ef7d, type: 3}
  m_Name: 
  m_EditorClassIdentifier: 
  _data:
    _json: '{"nest":{"source":"Embed","macro":null,"embed":{"variables":{"collection":{"$content":[],"$version":"A"},"$version":"A"},"controlInputDefinitions":[],"controlOutputDefinitions":[],"valueInputDefinitions":[],"valueOutputDefinitions":[],"title":"PlayerTankController","summary":null,"pan":{"x":227.9246,"y":250.975},"zoom":0.25,"elements":[{"type":"System.Single","value":{"$content":1.0,"$type":"System.Single"},"defaultValues":{},"position":{"x":-772.0,"y":-1654.0},"guid":"1a60fa2f-73d8-4ef9-9599-23a17e719b92","$version":"A","$type":"Bolt.Literal","$id":"10"},{"chainable":false,"member":{"name":"ClampMagnitude","parameterTypes":["UnityEngine.Vector3","System.Single"],"targetType":"UnityEngine.Vector3","targetTypeName":"UnityEngine.Vector3","$version":"A"},"defaultValues":{"%vector":{"x":0.0,"y":0.0,"z":1.0,"$type":"UnityEngine.Vector3"},"%maxLength":{"$content":1.0,"$type":"System.Single"}},"position":{"x":-636.0,"y":-1467.0},"guid":"3b9b5617-c926-4243-9ffb-88d0b58847ce","$version":"A","$type":"Bolt.InvokeMember","$id":"12"},{"defaultValues":{},"position":{"x":-642.0,"y":-1309.0},"guid":"1bf75a55-6b80-4db3-b574-a12a873ecb03","$version":"A","$type":"Bolt.GenericMultiply","$id":"15"},{"chainable":false,"member":{"name":"GetKey","parameterTypes":["UnityEngine.KeyCode"],"targetType":"UnityEngine.Input","targetTypeName":"UnityEngine.Input","$version":"A"},"defaultValues":{"%key":{"$content":"D","$type":"UnityEngine.KeyCode"}},"position":{"x":-802.0,"y":-1911.0},"guid":"0362fe28-4b36-467c-8210-05fa6b9579aa","$version":"A","$type":"Bolt.InvokeMember","$id":"17"},{"specifyFallback":false,"kind":"Object","defaultValues":{"name":{"$content":"moveSpeed","$type":"System.String"},"object":null},"position":{"x":-824.0,"y":-1372.0},"guid":"7505f7c0-6c87-4369-aae2-fb94bf743028","$version":"A","$type":"Bolt.GetVariable","$id":"20"},{"member":{"name":"deltaTime","parameterTypes":null,"targetType":"UnityEngine.Time","targetTypeName":"UnityEngine.Time","$version":"A"},"defaultValues":{},"position":{"x":-608.0,"y":-1603.0},"guid":"9fe9efa9-7321-4347-b335-bcdf67c14b60","$version":"A","$type":"Bolt.GetMember","$id":"22"},{"coroutine":false,"defaultValues":{},"position":{"x":-1539.0,"y":-1728.0},"guid":"449faf52-163e-4897-ad84-65392e7ea3c4","$version":"A","$type":"Bolt.Update","$id":"25"},{"type":"System.Single","value":{"$content":-1.0,"$type":"System.Single"},"defaultValues":{},"position":{"x":-755.0,"y":-2083.0},"guid":"dbfd8b8a-6388-4429-b544-3635bfb91541","$version":"A","$type":"Bolt.Literal","$id":"27"},{"defaultValues":{},"position":{"x":-355.0,"y":-1388.0},"guid":"83489461-7919-4f4e-b6b6-5b39d454db0b","$version":"A","$type":"Bolt.GenericMultiply","$id":"29"},{"chainable":false,"member":{"name":"ClampMagnitude","parameterTypes":["UnityEngine.Vector3","System.Single"],"targetType":"UnityEngine.Vector3","targetTypeName":"UnityEngine.Vector3","$version":"A"},"defaultValues":{"%vector":{"x":0.0,"y":1.0,"z":0.0,"$type":"UnityEngine.Vector3"},"%maxLength":{"$content":1.0,"$type":"System.Single"}},"position":{"x":-589.0,"y":-2351.0},"guid":"0d42c168-2967-4816-aafd-cbfdff9a50d0","$version":"A","$type":"Bolt.InvokeMember","$id":"31"},{"member":{"name":"deltaTime","parameterTypes":null,"targetType":"UnityEngine.Time","targetTypeName":"UnityEngine.Time","$version":"A"},"defaultValues":{},"position":{"x":-651.0,"y":-1188.0},"guid":"9416a143-b592-4fee-bcd6-955ca0d2034d","$version":"A","$type":"Bolt.GetMember","$id":"34"},{"defaultValues":{},"position":{"x":-960.0,"y":-1464.0},"guid":"14bc5e83-3415-4160-beb2-730692905955","$version":"A","$type":"Bolt.Branch","$id":"37"},{"defaultValues":{},"position":{"x":-647.0,"y":-1911.0},"guid":"c9406209-bdb6-4ef6-9dbd-1f11bf68b51c","$version":"A","$type":"Bolt.Branch","$id":"39"},{"defaultValues":{},"position":{"x":-680.0,"y":-1089.0},"guid":"1ecf5b8c-be78-48c7-87c0-3d435a61763d","$version":"A","$type":"Bolt.Branch","$id":"41"},{"defaultValues":{},"position":{"x":-575.0,"y":-1739.0},"guid":"3caf4990-27c9-4225-a028-c7bacac49d85","$version":"A","$type":"Bolt.GenericMultiply","$id":"43"},{"defaultValues":{},"position":{"x":-260.0,"y":-1802.0},"guid":"96ae101a-3dcf-4579-8e6a-13998ed1e867","$version":"A","$type":"Bolt.GenericMultiply","$id":"45"},{"chainable":false,"member":{"name":"Rotate","parameterTypes":["UnityEngine.Vector3"],"targetType":"UnityEngine.Transform","targetTypeName":"UnityEngine.Transform","$version":"A"},"defaultValues":{"target":null,"%eulers":{"x":0.0,"y":0.0,"z":0.0,"$type":"UnityEngine.Vector3"}},"position":{"x":-50.0,"y":-1917.0},"guid":"87b43a0f-74f1-4943-8bc5-f2bdaeb1e03f","$version":"A","$type":"Bolt.InvokeMember","$id":"47"},{"defaultValues":{},"position":{"x":-401.0,"y":-2150.0},"guid":"6a3ea05a-5bbf-4fab-85b3-af8e4d337d57","$version":"A","$type":"Bolt.GenericMultiply","$id":"50"},{"defaultValues":{},"position":{"x":-955.0,"y":-2138.0},"guid":"528bfdce-1200-4a6c-8959-d33ca70b89da","$version":"A","$type":"Bolt.Branch","$id":"52"},{"specifyFallback":false,"kind":"Object","defaultValues":{"name":{"$content":"angularSpeed","$type":"System.String"},"object":null},"position":{"x":-800.0,"y":-1776.0},"guid":"cd57d2cd-dd07-44b8-8392-3f615fdd4569","$version":"A","$type":"Bolt.GetVariable","$id":"54"},{"defaultValues":{},"position":{"x":-428.0,"y":-1701.0},"guid":"cd9c7e8c-b00c-4dac-8152-08fff208eca8","$version":"A","$type":"Bolt.GenericMultiply","$id":"56"},{"defaultValues":{},"position":{"x":-579.0,"y":-2192.0},"guid":"20c3a47c-9961-46ca-89b8-fa08c95b53b4","$version":"A","$type":"Bolt.GenericMultiply","$id":"58"},{"specifyFallback":false,"kind":"Object","defaultValues":{"name":{"$content":"angularSpeed","$type":"System.String"},"object":null},"position":{"x":-870.0,"y":-2344.0},"guid":"bc427dd0-cdc6-4234-b73d-efee06fdb042","$version":"A","$type":"Bolt.GetVariable","$id":"60"},{"defaultValues":{},"position":{"x":-267.0,"y":-2271.0},"guid":"c2c3b6cf-dd8b-483d-89e8-a52022600136","$version":"A","$type":"Bolt.GenericMultiply","$id":"62"},{"chainable":false,"member":{"name":"Rotate","parameterTypes":["UnityEngine.Vector3"],"targetType":"UnityEngine.Transform","targetTypeName":"UnityEngine.Transform","$version":"A"},"defaultValues":{"target":null,"%eulers":{"x":0.0,"y":0.0,"z":0.0,"$type":"UnityEngine.Vector3"}},"position":{"x":-117.0,"y":-2353.0},"guid":"91fb16b8-bc0b-4533-9e59-3034edccf056","$version":"A","$type":"Bolt.InvokeMember","$id":"64"},{"defaultValues":{},"position":{"x":-485.0,"y":-1290.0},"guid":"4d8e3a53-4b23-4d4c-9b0a-1f16557f395e","$version":"A","$type":"Bolt.GenericMultiply","$id":"67"},{"type":"System.Single","value":{"$content":1.0,"$type":"System.Single"},"defaultValues":{},"position":{"x":-768.0,"y":-1235.0},"guid":"ffc165cb-5ab9-410c-8843-7be5da72ede9","$version":"A","$type":"Bolt.Literal","$id":"69"},{"chainable":false,"member":{"name":"Translate","parameterTypes":["UnityEngine.Vector3"],"targetType":"UnityEngine.Transform","targetTypeName":"UnityEngine.Transform","$version":"A"},"defaultValues":{"target":null,"%translation":{"x":0.0,"y":0.0,"z":0.0,"$type":"UnityEngine.Vector3"}},"position":{"x":-215.0,"y":-1468.0},"guid":"9713b7cd-0f3e-494b-a6c7-94146051aff5","$version":"A","$type":"Bolt.InvokeMember","$id":"71"},{"outputCount":2,"defaultValues":{},"position":{"x":-1372.0,"y":-1734.0},"guid":"a1b7876d-5368-4321-bad9-958d604ee13d","$version":"A","$type":"Bolt.Sequence","$id":"74"},{"defaultValues":{},"position":{"x":-570.0,"y":-885.0},"guid":"6686941c-edba-41bc-9fb2-cc506ee0b27d","$version":"A","$type":"Bolt.GenericMultiply","$id":"76"},{"member":{"name":"deltaTime","parameterTypes":null,"targetType":"UnityEngine.Time","targetTypeName":"UnityEngine.Time","$version":"A"},"defaultValues":{},"position":{"x":-584.0,"y":-2048.0},"guid":"2031a4db-034e-4578-bc78-4cba948e5f32","$version":"A","$type":"Bolt.GetMember","$id":"78"},{"chainable":false,"member":{"name":"GetKey","parameterTypes":["UnityEngine.KeyCode"],"targetType":"UnityEngine.Input","targetTypeName":"UnityEngine.Input","$version":"A"},"defaultValues":{"%key":{"$content":"S","$type":"UnityEngine.KeyCode"}},"position":{"x":-835.0,"y":-1088.0},"guid":"47f37bc4-8d47-4491-ba06-d26c9524255c","$version":"A","$type":"Bolt.InvokeMember","$id":"81"},{"chainable":false,"member":{"name":"ClampMagnitude","parameterTypes":["UnityEngine.Vector3","System.Single"],"targetType":"UnityEngine.Vector3","targetTypeName":"UnityEngine.Vector3","$version":"A"},"defaultValues":{"%vector":{"x":0.0,"y":1.0,"z":0.0,"$type":"UnityEngine.Vector3"},"%maxLength":{"$content":1.0,"$type":"System.Single"}},"position":{"x":-466.0,"y":-1915.0},"guid":"a3e326e9-b2fd-4902-9aaa-b7312263b09d","$version":"A","$type":"Bolt.InvokeMember","$id":"84"},{"chainable":false,"member":{"name":"Translate","parameterTypes":["UnityEngine.Vector3"],"targetType":"UnityEngine.Transform","targetTypeName":"UnityEngine.Transform","$version":"A"},"defaultValues":{"target":null,"%translation":{"x":0.0,"y":0.0,"z":0.0,"$type":"UnityEngine.Vector3"}},"position":{"x":-125.0,"y":-1072.0},"guid":"fa5d8838-31e0-4eee-b5b7-85506915506a","$version":"A","$type":"Bolt.InvokeMember","$id":"87"},{"type":"System.Single","value":{"$content":-1.0,"$type":"System.Single"},"defaultValues":{},"position":{"x":-742.0,"y":-808.0},"guid":"ea9d33c7-2cac-4cf7-8164-254ddf7ad6e4","$version":"A","$type":"Bolt.Literal","$id":"90"},{"chainable":false,"member":{"name":"GetKey","parameterTypes":["UnityEngine.KeyCode"],"targetType":"UnityEngine.Input","targetTypeName":"UnityEngine.Input","$version":"A"},"defaultValues":{"%key":{"$content":"A","$type":"UnityEngine.KeyCode"}},"position":{"x":-1129.0,"y":-2139.0},"guid":"2375092e-cc49-4bca-aef8-f46e5c4158f4","$version":"A","$type":"Bolt.InvokeMember","$id":"92"},{"defaultValues":{},"position":{"x":-270.0,"y":-963.0},"guid":"4738b493-2d5d-4968-ba47-44a445a9e0a5","$version":"A","$type":"Bolt.GenericMultiply","$id":"95"},{"specifyFallback":false,"kind":"Object","defaultValues":{"name":{"$content":"moveSpeed","$type":"System.String"},"object":null},"position":{"x":-758.0,"y":-940.0},"guid":"f4b608a4-bfa7-459e-916a-2097277a7554","$version":"A","$type":"Bolt.GetVariable","$id":"97"},{"chainable":false,"member":{"name":"GetKey","parameterTypes":["UnityEngine.KeyCode"],"targetType":"UnityEngine.Input","targetTypeName":"UnityEngine.Input","$version":"A"},"defaultValues":{"%key":{"$content":"W","$type":"UnityEngine.KeyCode"}},"position":{"x":-1141.0,"y":-1463.0},"guid":"b91712ac-c33f-484b-8c42-b22a1dcee5b9","$version":"A","$type":"Bolt.InvokeMember","$id":"99"},{"defaultValues":{},"position":{"x":-400.0,"y":-845.0},"guid":"3b9094c2-dda7-4a50-9e70-15e8d1f4d8be","$version":"A","$type":"Bolt.GenericMultiply","$id":"102"},{"chainable":false,"member":{"name":"ClampMagnitude","parameterTypes":["UnityEngine.Vector3","System.Single"],"targetType":"UnityEngine.Vector3","targetTypeName":"UnityEngine.Vector3","$version":"A"},"defaultValues":{"%vector":{"x":0.0,"y":0.0,"z":1.0,"$type":"UnityEngine.Vector3"},"%maxLength":{"$content":1.0,"$type":"System.Single"}},"position":{"x":-498.0,"y":-1071.0},"guid":"94a66820-40e9-4675-8fbb-99d084e4117a","$version":"A","$type":"Bolt.InvokeMember","$id":"104"},{"member":{"name":"deltaTime","parameterTypes":null,"targetType":"UnityEngine.Time","targetTypeName":"UnityEngine.Time","$version":"A"},"defaultValues":{},"position":{"x":-604.0,"y":-754.0},"guid":"54e2d333-b32d-486e-8a82-67ca3e8a2a49","$version":"A","$type":"Bolt.GetMember","$id":"107"},{"sourceUnit":{"$ref":"31"},"sourceKey":"exit","destinationUnit":{"$ref":"64"},"destinationKey":"enter","guid":"91db7cc7-fb6b-40b8-ae77-d21d2bbe123f","$type":"Bolt.ControlConnection"},{"sourceUnit":{"$ref":"12"},"sourceKey":"exit","destinationUnit":{"$ref":"71"},"destinationKey":"enter","guid":"01e92350-6da7-44ef-8380-7b92eba56b82","$type":"Bolt.ControlConnection"},{"sourceUnit":{"$ref":"84"},"sourceKey":"exit","destinationUnit":{"$ref":"47"},"destinationKey":"enter","guid":"59b20a17-8325-4a59-b830-2139e14cc2c2","$type":"Bolt.ControlConnection"},{"sourceUnit":{"$ref":"25"},"sourceKey":"trigger","destinationUnit":{"$ref":"74"},"destinationKey":"enter","guid":"0eed57ae-2b37-41bd-aa70-0681b6727b99","$type":"Bolt.ControlConnection"},{"sourceUnit":{"$ref":"104"},"sourceKey":"exit","destinationUnit":{"$ref":"87"},"destinationKey":"enter","guid":"56ee5d5d-e256-41b4-a0b1-61369582f694","$type":"Bolt.ControlConnection"},{"sourceUnit":{"$ref":"52"},"sourceKey":"ifTrue","destinationUnit":{"$ref":"31"},"destinationKey":"enter","guid":"4710148e-2ec6-4d8a-b5c9-c4d6311f5c20","$type":"Bolt.ControlConnection"},{"sourceUnit":{"$ref":"39"},"sourceKey":"ifTrue","destinationUnit":{"$ref":"84"},"destinationKey":"enter","guid":"ef071ad5-a4ce-449b-bb4b-1bfbcf4bcedf","$type":"Bolt.ControlConnection"},{"sourceUnit":{"$ref":"41"},"sourceKey":"ifTrue","destinationUnit":{"$ref":"104"},"destinationKey":"enter","guid":"6e8109b0-6da2-4bde-b2eb-909c9247deaa","$type":"Bolt.ControlConnection"},{"sourceUnit":{"$ref":"37"},"sourceKey":"ifTrue","destinationUnit":{"$ref":"12"},"destinationKey":"enter","guid":"cc431ea9-24b5-4794-9653-00e203894977","$type":"Bolt.ControlConnection"},{"sourceUnit":{"$ref":"74"},"sourceKey":"0","destinationUnit":{"$ref":"92"},"destinationKey":"enter","guid":"749cbec8-c3f6-418b-8a26-cfa3008c2fd4","$type":"Bolt.ControlConnection"},{"sourceUnit":{"$ref":"92"},"sourceKey":"exit","destinationUnit":{"$ref":"52"},"destinationKey":"enter","guid":"e65bcee4-af63-4e65-abd7-e5ef99e440e6","$type":"Bolt.ControlConnection"},{"sourceUnit":{"$ref":"74"},"sourceKey":"1","destinationUnit":{"$ref":"99"},"destinationKey":"enter","guid":"6a7f289c-cad6-418a-a4e2-deb189e9c93b","$type":"Bolt.ControlConnection"},{"sourceUnit":{"$ref":"99"},"sourceKey":"exit","destinationUnit":{"$ref":"37"},"destinationKey":"enter","guid":"e9dd9282-4897-418f-9c51-c57a7e280e45","$type":"Bolt.ControlConnection"},{"sourceUnit":{"$ref":"37"},"sourceKey":"ifFalse","destinationUnit":{"$ref":"81"},"destinationKey":"enter","guid":"80d2e16a-5a55-401e-979f-f80c13ed9e0b","$type":"Bolt.ControlConnection"},{"sourceUnit":{"$ref":"81"},"sourceKey":"exit","destinationUnit":{"$ref":"41"},"destinationKey":"enter","guid":"cc1ef2a7-2519-43be-af24-3811c7c892ce","$type":"Bolt.ControlConnection"},{"sourceUnit":{"$ref":"52"},"sourceKey":"ifFalse","destinationUnit":{"$ref":"17"},"destinationKey":"enter","guid":"8be05cb9-554c-430b-a1bf-6b91142b4532","$type":"Bolt.ControlConnection"},{"sourceUnit":{"$ref":"17"},"sourceKey":"exit","destinationUnit":{"$ref":"39"},"destinationKey":"enter","guid":"bfe51de2-7a29-4b60-8cd7-9b123d8c393b","$type":"Bolt.ControlConnection"},{"sourceUnit":{"$ref":"22"},"sourceKey":"value","destinationUnit":{"$ref":"56"},"destinationKey":"b","guid":"f1ab9b16-0d7e-4e91-8ccb-7b741baec27e","$type":"Bolt.ValueConnection"},{"sourceUnit":{"$ref":"84"},"sourceKey":"result","destinationUnit":{"$ref":"45"},"destinationKey":"a","guid":"a493f316-cf57-49b6-8765-b7c981b3e2bf","$type":"Bolt.ValueConnection"},{"sourceUnit":{"$ref":"15"},"sourceKey":"product","destinationUnit":{"$ref":"67"},"destinationKey":"a","guid":"59e78756-84b6-410e-ba5b-aee59e5327e4","$type":"Bolt.ValueConnection"},{"sourceUnit":{"$ref":"104"},"sourceKey":"result","destinationUnit":{"$ref":"95"},"destinationKey":"a","guid":"cf67a51a-80aa-4962-8059-d272969802f7","$type":"Bolt.ValueConnection"},{"sourceUnit":{"$ref":"76"},"sourceKey":"product","destinationUnit":{"$ref":"102"},"destinationKey":"a","guid":"49679767-280c-404f-a02c-5866ba4b7406","$type":"Bolt.ValueConnection"},{"sourceUnit":{"$ref":"34"},"sourceKey":"value","destinationUnit":{"$ref":"67"},"destinationKey":"b","guid":"d2dbb056-3ee6-4043-bd72-0046bd9552ab","$type":"Bolt.ValueConnection"},{"sourceUnit":{"$ref":"58"},"sourceKey":"product","destinationUnit":{"$ref":"50"},"destinationKey":"a","guid":"1acea591-a260-4c9d-9040-5aebffd0e754","$type":"Bolt.ValueConnection"},{"sourceUnit":{"$ref":"67"},"sourceKey":"product","destinationUnit":{"$ref":"29"},"destinationKey":"b","guid":"5a4de3e8-2c46-45a7-aa91-60cb111e7594","$type":"Bolt.ValueConnection"},{"sourceUnit":{"$ref":"97"},"sourceKey":"value","destinationUnit":{"$ref":"76"},"destinationKey":"a","guid":"5515d114-cd89-4346-9611-15360fd128c7","$type":"Bolt.ValueConnection"},{"sourceUnit":{"$ref":"27"},"sourceKey":"output","destinationUnit":{"$ref":"58"},"destinationKey":"b","guid":"cd0bb0ae-03a3-40e1-83a2-62bcb9c9b422","$type":"Bolt.ValueConnection"},{"sourceUnit":{"$ref":"95"},"sourceKey":"product","destinationUnit":{"$ref":"87"},"destinationKey":"%translation","guid":"df5b69c6-6890-42ef-bffb-104c7b628096","$type":"Bolt.ValueConnection"},{"sourceUnit":{"$ref":"107"},"sourceKey":"value","destinationUnit":{"$ref":"102"},"destinationKey":"b","guid":"a17336bd-a03a-4369-baff-27a64b6b2314","$type":"Bolt.ValueConnection"},{"sourceUnit":{"$ref":"43"},"sourceKey":"product","destinationUnit":{"$ref":"56"},"destinationKey":"a","guid":"52a4f0c0-a75f-4b8e-9bd3-7d76ffd8b9f5","$type":"Bolt.ValueConnection"},{"sourceUnit":{"$ref":"31"},"sourceKey":"result","destinationUnit":{"$ref":"62"},"destinationKey":"a","guid":"5c27a369-d7df-4971-addb-b52c4d7242f1","$type":"Bolt.ValueConnection"},{"sourceUnit":{"$ref":"17"},"sourceKey":"result","destinationUnit":{"$ref":"39"},"destinationKey":"condition","guid":"e6ed85c5-3d60-47f8-94f0-54dba3dbce4e","$type":"Bolt.ValueConnection"},{"sourceUnit":{"$ref":"60"},"sourceKey":"value","destinationUnit":{"$ref":"58"},"destinationKey":"a","guid":"6cb78b73-5bfa-4e9c-8dd4-e126b2fc00e3","$type":"Bolt.ValueConnection"},{"sourceUnit":{"$ref":"102"},"sourceKey":"product","destinationUnit":{"$ref":"95"},"destinationKey":"b","guid":"490dbe6b-663c-4674-a720-fb0c8a4d46bb","$type":"Bolt.ValueConnection"},{"sourceUnit":{"$ref":"78"},"sourceKey":"value","destinationUnit":{"$ref":"50"},"destinationKey":"b","guid":"0e2ee9eb-2153-4f3b-9541-62ce8136175e","$type":"Bolt.ValueConnection"},{"sourceUnit":{"$ref":"45"},"sourceKey":"product","destinationUnit":{"$ref":"47"},"destinationKey":"%eulers","guid":"bed9be7c-6093-4f35-99bb-c67b9d24fd54","$type":"Bolt.ValueConnection"},{"sourceUnit":{"$ref":"29"},"sourceKey":"product","destinationUnit":{"$ref":"71"},"destinationKey":"%translation","guid":"3f3e1522-a0da-4df3-b851-ef49cab18c68","$type":"Bolt.ValueConnection"},{"sourceUnit":{"$ref":"99"},"sourceKey":"result","destinationUnit":{"$ref":"37"},"destinationKey":"condition","guid":"e0b77ff7-8d46-4a1c-97c0-6b03aed1869c","$type":"Bolt.ValueConnection"},{"sourceUnit":{"$ref":"92"},"sourceKey":"result","destinationUnit":{"$ref":"52"},"destinationKey":"condition","guid":"94cd3bfc-828a-484a-904f-01d974e247fb","$type":"Bolt.ValueConnection"},{"sourceUnit":{"$ref":"90"},"sourceKey":"output","destinationUnit":{"$ref":"76"},"destinationKey":"b","guid":"7c682521-4863-43e4-95ac-6b9d227c4fc8","$type":"Bolt.ValueConnection"},{"sourceUnit":{"$ref":"54"},"sourceKey":"value","destinationUnit":{"$ref":"43"},"destinationKey":"a","guid":"a4a933cf-7087-4bbf-ad77-b6ffb3d791da","$type":"Bolt.ValueConnection"},{"sourceUnit":{"$ref":"50"},"sourceKey":"product","destinationUnit":{"$ref":"62"},"destinationKey":"b","guid":"27bab810-ec56-43c2-a39f-cd2b7f3c58cd","$type":"Bolt.ValueConnection"},{"sourceUnit":{"$ref":"69"},"sourceKey":"output","destinationUnit":{"$ref":"15"},"destinationKey":"b","guid":"fa0077ec-37a0-4da8-bb68-47547fde874d","$type":"Bolt.ValueConnection"},{"sourceUnit":{"$ref":"62"},"sourceKey":"product","destinationUnit":{"$ref":"64"},"destinationKey":"%eulers","guid":"de4b29f8-f49d-4fd6-83ed-a2c9616b8293","$type":"Bolt.ValueConnection"},{"sourceUnit":{"$ref":"12"},"sourceKey":"result","destinationUnit":{"$ref":"29"},"destinationKey":"a","guid":"6ced9a1f-5fc9-49fc-b31c-5be4c61dcfe8","$type":"Bolt.ValueConnection"},{"sourceUnit":{"$ref":"56"},"sourceKey":"product","destinationUnit":{"$ref":"45"},"destinationKey":"b","guid":"001dbb0c-989b-42ff-bd51-9e6cba95617e","$type":"Bolt.ValueConnection"},{"sourceUnit":{"$ref":"20"},"sourceKey":"value","destinationUnit":{"$ref":"15"},"destinationKey":"a","guid":"3f511ef2-c317-453b-ab80-4d4eb8404524","$type":"Bolt.ValueConnection"},{"sourceUnit":{"$ref":"10"},"sourceKey":"output","destinationUnit":{"$ref":"43"},"destinationKey":"b","guid":"f617e0f8-74b2-40bc-9c08-f416fe268270","$type":"Bolt.ValueConnection"},{"sourceUnit":{"$ref":"81"},"sourceKey":"result","destinationUnit":{"$ref":"41"},"destinationKey":"condition","guid":"ee78052f-7792-4d8b-b316-77c8c249b057","$type":"Bolt.ValueConnection"}],"$version":"A"}}}'
    _objectReferences: []
--- !u!114 &7195491360290036902
MonoBehaviour:
  m_ObjectHideFlags: 0
  m_CorrespondingSourceObject: {fileID: 0}
  m_PrefabInstance: {fileID: 0}
  m_PrefabAsset: {fileID: 0}
  m_GameObject: {fileID: 7195491360290036914}
  m_Enabled: 0
  m_EditorHideFlags: 0
  m_Script: {fileID: -57143145, guid: a040fb66244a7f54289914d98ea4ef7d, type: 3}
  m_Name: 
  m_EditorClassIdentifier: 
  _data:
    _json: '{"nest":{"source":"Embed","macro":null,"embed":{"variables":{"collection":{"$content":[],"$version":"A"},"$version":"A"},"controlInputDefinitions":[],"controlOutputDefinitions":[],"valueInputDefinitions":[],"valueOutputDefinitions":[],"title":null,"summary":null,"pan":{"x":346.755,"y":621.945},"zoom":1.0,"elements":[{"coroutine":false,"defaultValues":{},"position":{"x":-204.0,"y":-144.0},"guid":"0a76b457-1482-48ac-a1a3-f12d9df9e844","$version":"A","$type":"Bolt.Start","$id":"10"},{"defaultValues":{},"position":{"x":1800.0,"y":528.0},"guid":"cdf5c7b5-23ff-41f8-9054-b6442a57b1a2","$version":"A","$type":"Bolt.GenericMultiply","$id":"12"},{"defaultValues":{},"position":{"x":1421.0,"y":570.0},"guid":"a629cfea-0a57-4352-80ba-d0b5090a9e28","$version":"A","$type":"Bolt.GenericMultiply","$id":"14"},{"member":{"name":"deltaTime","parameterTypes":null,"targetType":"UnityEngine.Time","targetTypeName":"UnityEngine.Time","$version":"A"},"defaultValues":{},"position":{"x":1232.0,"y":719.0},"guid":"bce4ff45-27ee-41b4-8447-6b063eb96be9","$version":"A","$type":"Bolt.GetMember","$id":"16"},{"defaultValues":{},"position":{"x":1242.0,"y":568.0},"guid":"82c0f4d5-c463-4d87-9801-35173231f30c","$version":"A","$type":"Bolt.GenericMultiply","$id":"19"},{"chainable":false,"member":{"name":"GetAxis","parameterTypes":["System.String"],"targetType":"UnityEngine.Input","targetTypeName":"UnityEngine.Input","$version":"A"},"defaultValues":{"%axisName":{"$content":"Mouse
      Y","$type":"System.String"}},"position":{"x":992.0,"y":660.0},"guid":"404ce08d-0899-4ddd-894d-7c1df74d22f0","$version":"A","$type":"Bolt.InvokeMember","$id":"21"},{"defaultValues":{},"position":{"x":1012.0,"y":525.0},"guid":"72a768aa-48d8-4352-932f-98c30681c285","$version":"A","$type":"Bolt.GenericMultiply","$id":"24"},{"kind":"Object","defaultValues":{"name":{"$content":"hPlayerRotation","$type":"System.String"},"object":null},"position":{"x":2051.0,"y":297.0},"guid":"359a3885-9bdd-47d4-9a80-6e384f6f08bc","$version":"A","$type":"Bolt.SetVariable","$id":"26"},{"member":{"name":"deltaTime","parameterTypes":null,"targetType":"UnityEngine.Time","targetTypeName":"UnityEngine.Time","$version":"A"},"defaultValues":{},"position":{"x":1601.0,"y":730.0},"guid":"206d8f83-9aec-458b-9b12-bd6a109134e3","$version":"A","$type":"Bolt.GetMember","$id":"28"},{"chainable":false,"member":{"name":"Rotate","parameterTypes":["System.Single","System.Single","System.Single"],"targetType":"UnityEngine.Transform","targetTypeName":"UnityEngine.Transform","$version":"A"},"defaultValues":{"target":{"$content":0,"$type":"UnityEngine.Object"},"%xAngle":{"$content":0.0,"$type":"System.Single"},"%yAngle":{"$content":0.0,"$type":"System.Single"},"%zAngle":{"$content":0.0,"$type":"System.Single"}},"position":{"x":2281.0,"y":301.0},"guid":"a6407370-3a6a-4e1b-8899-4f481986a4ad","$version":"A","$type":"Bolt.InvokeMember","$id":"31"},{"chainable":false,"member":{"name":"Find","parameterTypes":["System.String"],"targetType":"UnityEngine.GameObject","targetTypeName":"UnityEngine.GameObject","$version":"A"},"defaultValues":{"%name":{"$content":"cam","$type":"System.String"}},"position":{"x":2561.0,"y":301.0},"guid":"23981ed9-5a8d-4e8a-ac44-7f50c5bb24a4","$version":"A","$type":"Bolt.InvokeMember","$id":"34"},{"specifyFallback":false,"kind":"Object","defaultValues":{"name":{"$content":"vRotationSpeed","$type":"System.String"},"object":null},"position":{"x":998.0,"y":779.0},"guid":"798c7b87-28b4-4b14-b8c0-ffbb61c3ee99","$version":"A","$type":"Bolt.GetVariable","$id":"37"},{"chainable":false,"member":{"name":"GetAxis","parameterTypes":["System.String"],"targetType":"UnityEngine.Input","targetTypeName":"UnityEngine.Input","$version":"A"},"defaultValues":{"%axisName":{"$content":"Mouse
      X","$type":"System.String"}},"position":{"x":1583.0,"y":473.0},"guid":"5925327a-1729-4380-bce7-8d29093115f6","$version":"A","$type":"Bolt.InvokeMember","$id":"39"},{"member":{"name":"deltaTime","parameterTypes":null,"targetType":"UnityEngine.Time","targetTypeName":"UnityEngine.Time","$version":"A"},"defaultValues":{},"position":{"x":771.0,"y":895.0},"guid":"dfdf13e4-fe43-4dbd-8250-cba924756ab0","$version":"A","$type":"Bolt.GetMember","$id":"42"},{"type":"System.Single","value":{"$content":-1.0,"$type":"System.Single"},"defaultValues":{},"position":{"x":2551.0,"y":609.0},"guid":"3f15981f-b2bd-4a5c-858c-d03b3d945f69","$version":"A","$type":"Bolt.Literal","$id":"45"},{"specifyFallback":false,"kind":"Object","defaultValues":{"name":{"$content":"vCamRotation","$type":"System.String"},"object":null},"position":{"x":2477.0,"y":462.0},"guid":"b39592b8-d6b4-4467-8a43-224af54412e6","$version":"A","$type":"Bolt.GetVariable","$id":"47"},{"specifyFallback":false,"kind":"Object","defaultValues":{"name":{"$content":"walkSpeed","$type":"System.String"},"object":null},"position":{"x":669.0,"y":770.0},"guid":"6739739a-fb7a-4990-a1e1-9946a03f66c8","$version":"A","$type":"Bolt.GetVariable","$id":"49"},{"chainable":false,"member":{"name":"Rotate","parameterTypes":["System.Single","System.Single","System.Single"],"targetType":"UnityEngine.Transform","targetTypeName":"UnityEngine.Transform","$version":"A"},"defaultValues":{"target":{"$content":1,"$type":"UnityEngine.Object"},"%xAngle":{"$content":0.0,"$type":"System.Single"},"%yAngle":{"$content":0.0,"$type":"System.Single"},"%zAngle":{"$content":0.0,"$type":"System.Single"}},"position":{"x":2826.0,"y":293.0},"guid":"1a927720-f3a3-400d-be6b-08c43d56ed37","$version":"A","$type":"Bolt.InvokeMember","$id":"51"},{"defaultValues":{},"position":{"x":1940.0,"y":561.0},"guid":"1c4f6c58-f66a-4aa1-a032-40db26ee89a7","$version":"A","$type":"Bolt.GenericMultiply","$id":"54"},{"specifyFallback":false,"kind":"Object","defaultValues":{"name":{"$content":"hRotationSpeed","$type":"System.String"},"object":null},"position":{"x":1585.0,"y":596.0},"guid":"2a71fe10-d0f6-408f-b1d9-fd90bf9a43e3","$version":"A","$type":"Bolt.GetVariable","$id":"56"},{"kind":"Object","defaultValues":{"name":{"$content":"vCamRotation","$type":"System.String"},"object":null},"position":{"x":1554.0,"y":296.0},"guid":"f5ccc1df-7d5f-473d-b437-b204ecf73db5","$version":"A","$type":"Bolt.SetVariable","$id":"58"},{"defaultValues":{},"position":{"x":2669.0,"y":582.0},"guid":"b6ac3d47-bdf9-4f76-83a1-c2e4f27f3fe7","$version":"A","$type":"Bolt.GenericMultiply","$id":"60"},{"chainable":false,"member":{"name":"visible","parameterTypes":null,"targetType":"UnityEngine.Cursor","targetTypeName":"UnityEngine.Cursor","$version":"A"},"defaultValues":{"input":{"$content":false,"$type":"System.Boolean"}},"position":{"x":-21.0,"y":-143.0},"guid":"f9f6d1f4-54a1-44d2-9077-641a5659f3d8","$version":"A","$type":"Bolt.SetMember","$id":"62"},{"chainable":false,"member":{"name":"GetAxisRaw","parameterTypes":["System.String"],"targetType":"UnityEngine.Input","targetTypeName":"UnityEngine.Input","$version":"A"},"defaultValues":{"%axisName":{"$content":"Horizontal","$type":"System.String"}},"position":{"x":-219.0,"y":441.0},"guid":"ebcd4906-ee14-4c1b-9b4b-59ee82d12d8d","$version":"A","$type":"Bolt.InvokeMember","$id":"65"},{"chainable":false,"member":{"name":"lockState","parameterTypes":null,"targetType":"UnityEngine.Cursor","targetTypeName":"UnityEngine.Cursor","$version":"A"},"defaultValues":{"input":{"$content":"Locked","$type":"UnityEngine.CursorLockMode"}},"position":{"x":210.0,"y":-143.0},"guid":"ae18837c-6c2f-4b0c-9783-5ffb5acadc25","$version":"A","$type":"Bolt.SetMember","$id":"68"},{"chainable":false,"member":{"name":"Find","parameterTypes":["System.String"],"targetType":"UnityEngine.GameObject","targetTypeName":"UnityEngine.GameObject","$version":"A"},"defaultValues":{"%name":{"$content":"Capsule","$type":"System.String"}},"position":{"x":486.0,"y":-145.0},"guid":"ee795eff-8ccb-4e48-91b7-864413aed5ea","$version":"A","$type":"Bolt.InvokeMember","$id":"71"},{"chainable":false,"member":{"name":"SetActive","parameterTypes":["System.Boolean"],"targetType":"UnityEngine.GameObject","targetTypeName":"UnityEngine.GameObject","$version":"A"},"defaultValues":{"target":null,"%value":{"$content":false,"$type":"System.Boolean"}},"position":{"x":727.0,"y":-144.0},"guid":"f420a26e-344f-477f-a743-e92087a9bf4b","$version":"A","$type":"Bolt.InvokeMember","$id":"74"},{"argumentCount":0,"defaultValues":{"name":{"$content":"movement","$type":"System.String"},"target":null},"position":{"x":-80.0,"y":149.0},"guid":"c1d8f98f-ca24-469a-8a8a-a6787a25e6ef","$version":"A","$type":"Bolt.TriggerCustomEvent","$id":"77"},{"kind":"Object","defaultValues":{"name":{"$content":"hMovement","$type":"System.String"},"object":null},"position":{"x":59.0,"y":313.0},"guid":"e4056eab-ea7d-4628-b157-92206761dc14","$version":"A","$type":"Bolt.SetVariable","$id":"79"},{"argumentCount":0,"coroutine":false,"defaultValues":{"target":null,"name":{"$content":"movement","$type":"System.String"}},"position":{"x":-219.0,"y":305.0},"guid":"cfdf1ab1-774a-43ea-baa6-8aa5f69ef268","$version":"A","$type":"Bolt.CustomEvent","$id":"81"},{"chainable":false,"member":{"name":"ClampMagnitude","parameterTypes":["UnityEngine.Vector3","System.Single"],"targetType":"UnityEngine.Vector3","targetTypeName":"UnityEngine.Vector3","$version":"A"},"defaultValues":{"%vector":{"x":0.0,"y":0.0,"z":0.0,"$type":"UnityEngine.Vector3"},"%maxLength":{"$content":1.0,"$type":"System.Single"}},"position":{"x":800.0,"y":298.0},"guid":"f6259bcd-79d3-46be-a079-7b23b1c12c04","$version":"A","$type":"Bolt.InvokeMember","$id":"83"},{"coroutine":false,"defaultValues":{},"position":{"x":-228.0,"y":168.0},"guid":"f0096b15-1341-43d3-85b7-e09d08658ea6","$version":"A","$type":"Bolt.Update","$id":"86"},{"defaultValues":{},"position":{"x":844.0,"y":577.0},"guid":"49f9b523-0c80-440f-a2c1-bacd5102903b","$version":"A","$type":"Bolt.GenericMultiply","$id":"88"},{"member":{"name":"forward","parameterTypes":null,"targetType":"UnityEngine.Vector3","targetTypeName":"UnityEngine.Vector3","$version":"A"},"defaultValues":{},"position":{"x":96.0,"y":647.0},"guid":"33626d73-a7db-4393-b988-2a4a68b55261","$version":"A","$type":"Bolt.GetMember","$id":"90"},{"chainable":false,"member":{"name":"Translate","parameterTypes":["UnityEngine.Vector3"],"targetType":"UnityEngine.Transform","targetTypeName":"UnityEngine.Transform","$version":"A"},"defaultValues":{"target":null,"%translation":{"x":0.0,"y":0.0,"z":0.0,"$type":"UnityEngine.Vector3"}},"position":{"x":1180.0,"y":328.0},"guid":"1e1de5eb-c24e-4436-b04a-5881ec724bef","$version":"A","$type":"Bolt.InvokeMember","$id":"93"},{"kind":"Object","defaultValues":{"name":{"$content":"vMovement","$type":"System.String"},"object":null},"position":{"x":308.0,"y":293.0},"guid":"fdc3f9ad-8299-4207-af9c-bb7a676d8e50","$version":"A","$type":"Bolt.SetVariable","$id":"96"},{"inputCount":2,"defaultValues":{},"position":{"x":607.0,"y":540.0},"guid":"dcf53204-c51e-4a15-839c-d9079ef082ea","$version":"A","$type":"Bolt.Vector3Sum","$id":"98"},{"chainable":false,"member":{"name":"GetAxisRaw","parameterTypes":["System.String"],"targetType":"UnityEngine.Input","targetTypeName":"UnityEngine.Input","$version":"A"},"defaultValues":{"%axisName":{"$content":"Vertical","$type":"System.String"}},"position":{"x":57.0,"y":488.0},"guid":"f8b71507-5548-4ca5-8474-f5058e2e81ae","$version":"A","$type":"Bolt.InvokeMember","$id":"100"},{"defaultValues":{},"position":{"x":477.0,"y":455.0},"guid":"80db8219-78eb-4fbe-9b86-c38beb521005","$version":"A","$type":"Bolt.GenericMultiply","$id":"103"},{"member":{"name":"right","parameterTypes":null,"targetType":"UnityEngine.Vector3","targetTypeName":"UnityEngine.Vector3","$version":"A"},"defaultValues":{},"position":{"x":110.0,"y":768.0},"guid":"834d46e6-965a-43d9-a79e-79aa643d0fce","$version":"A","$type":"Bolt.GetMember","$id":"105"},{"defaultValues":{},"position":{"x":460.0,"y":578.0},"guid":"ad7589a6-5f6d-4b5a-93d6-901d17cbb066","$version":"A","$type":"Bolt.GenericMultiply","$id":"108"},{"sourceUnit":{"$ref":"93"},"sourceKey":"exit","destinationUnit":{"$ref":"58"},"destinationKey":"assign","guid":"54c059e7-75da-4e99-b567-36f336e05f4c","$type":"Bolt.ControlConnection"},{"sourceUnit":{"$ref":"58"},"sourceKey":"assigned","destinationUnit":{"$ref":"26"},"destinationKey":"assign","guid":"cdd1af13-eaae-4b79-9628-7f1620fd9b03","$type":"Bolt.ControlConnection"},{"sourceUnit":{"$ref":"10"},"sourceKey":"trigger","destinationUnit":{"$ref":"62"},"destinationKey":"assign","guid":"6742b520-f92d-437a-bab5-5d0ec4974009","$type":"Bolt.ControlConnection"},{"sourceUnit":{"$ref":"62"},"sourceKey":"assigned","destinationUnit":{"$ref":"68"},"destinationKey":"assign","guid":"35025bdc-eb89-415e-8f31-258ee2b4a444","$type":"Bolt.ControlConnection"},{"sourceUnit":{"$ref":"68"},"sourceKey":"assigned","destinationUnit":{"$ref":"71"},"destinationKey":"enter","guid":"87edb57b-047e-4c77-8cab-b7359d542aa7","$type":"Bolt.ControlConnection"},{"sourceUnit":{"$ref":"71"},"sourceKey":"exit","destinationUnit":{"$ref":"74"},"destinationKey":"enter","guid":"72386de0-ec1c-4ab0-bc3c-563e0fbdedef","$type":"Bolt.ControlConnection"},{"sourceUnit":{"$ref":"86"},"sourceKey":"trigger","destinationUnit":{"$ref":"77"},"destinationKey":"enter","guid":"6db245f2-eeae-4bec-abe4-e7802d4e4c0e","$type":"Bolt.ControlConnection"},{"sourceUnit":{"$ref":"81"},"sourceKey":"trigger","destinationUnit":{"$ref":"79"},"destinationKey":"assign","guid":"33bb607a-fc5c-4398-ba8e-96ed3bada1f3","$type":"Bolt.ControlConnection"},{"sourceUnit":{"$ref":"79"},"sourceKey":"assigned","destinationUnit":{"$ref":"96"},"destinationKey":"assign","guid":"c02096b7-694d-4c28-a998-134dae5ce53d","$type":"Bolt.ControlConnection"},{"sourceUnit":{"$ref":"96"},"sourceKey":"assigned","destinationUnit":{"$ref":"83"},"destinationKey":"enter","guid":"4ee60e9d-a873-46c1-ab31-28ca17acaf56","$type":"Bolt.ControlConnection"},{"sourceUnit":{"$ref":"83"},"sourceKey":"exit","destinationUnit":{"$ref":"93"},"destinationKey":"enter","guid":"679d4137-755b-4a4f-8b89-41fc18f9ba11","$type":"Bolt.ControlConnection"},{"sourceUnit":{"$ref":"26"},"sourceKey":"assigned","destinationUnit":{"$ref":"31"},"destinationKey":"enter","guid":"07edb217-31cc-4bfc-8258-93fed18ff620","$type":"Bolt.ControlConnection"},{"sourceUnit":{"$ref":"31"},"sourceKey":"exit","destinationUnit":{"$ref":"34"},"destinationKey":"enter","guid":"871f0842-5eb2-4029-9594-9849f975f306","$type":"Bolt.ControlConnection"},{"sourceUnit":{"$ref":"34"},"sourceKey":"exit","destinationUnit":{"$ref":"51"},"destinationKey":"enter","guid":"2a0f082d-ba76-4c4d-a6a8-c9df2fc6cdb1","$type":"Bolt.ControlConnection"},{"sourceUnit":{"$ref":"54"},"sourceKey":"product","destinationUnit":{"$ref":"26"},"destinationKey":"input","guid":"930ce4db-a6e0-4f32-b620-84cd23439676","$type":"Bolt.ValueConnection"},{"sourceUnit":{"$ref":"37"},"sourceKey":"value","destinationUnit":{"$ref":"19"},"destinationKey":"b","guid":"75e89daf-0a12-407e-a61f-d6b4a7d7e866","$type":"Bolt.ValueConnection"},{"sourceUnit":{"$ref":"108"},"sourceKey":"product","destinationUnit":{"$ref":"98"},"destinationKey":"1","guid":"d9708580-4324-43d1-b966-bc49bd4f31f5","$type":"Bolt.ValueConnection"},{"sourceUnit":{"$ref":"28"},"sourceKey":"value","destinationUnit":{"$ref":"54"},"destinationKey":"b","guid":"4624236f-a819-473b-bd7c-c11d47cf84f4","$type":"Bolt.ValueConnection"},{"sourceUnit":{"$ref":"16"},"sourceKey":"value","destinationUnit":{"$ref":"14"},"destinationKey":"b","guid":"915d35ca-19b9-43b8-b0d7-d989832ec812","$type":"Bolt.ValueConnection"},{"sourceUnit":{"$ref":"96"},"sourceKey":"output","destinationUnit":{"$ref":"103"},"destinationKey":"a","guid":"a1bbc698-3c23-45c2-b31b-74a022eba972","$type":"Bolt.ValueConnection"},{"sourceUnit":{"$ref":"42"},"sourceKey":"value","destinationUnit":{"$ref":"88"},"destinationKey":"b","guid":"69070b58-52ee-4482-a106-f3735079c093","$type":"Bolt.ValueConnection"},{"sourceUnit":{"$ref":"14"},"sourceKey":"product","destinationUnit":{"$ref":"58"},"destinationKey":"input","guid":"fef22c97-584d-4bcc-be72-251c61631406","$type":"Bolt.ValueConnection"},{"sourceUnit":{"$ref":"56"},"sourceKey":"value","destinationUnit":{"$ref":"12"},"destinationKey":"b","guid":"e3450135-b605-4c35-97c8-53668df5851d","$type":"Bolt.ValueConnection"},{"sourceUnit":{"$ref":"98"},"sourceKey":"sum","destinationUnit":{"$ref":"83"},"destinationKey":"%vector","guid":"33e96a4d-ee5e-45b4-9328-689ed72a1694","$type":"Bolt.ValueConnection"},{"sourceUnit":{"$ref":"105"},"sourceKey":"value","destinationUnit":{"$ref":"108"},"destinationKey":"b","guid":"5b165dd6-d272-4357-906e-c6d7d2854e26","$type":"Bolt.ValueConnection"},{"sourceUnit":{"$ref":"100"},"sourceKey":"result","destinationUnit":{"$ref":"96"},"destinationKey":"input","guid":"24b9438f-42c6-4d35-9e9b-47ace775b0cb","$type":"Bolt.ValueConnection"},{"sourceUnit":{"$ref":"26"},"sourceKey":"output","destinationUnit":{"$ref":"31"},"destinationKey":"%yAngle","guid":"eaecc638-818f-42bc-895c-ce869d6b9f2c","$type":"Bolt.ValueConnection"},{"sourceUnit":{"$ref":"103"},"sourceKey":"product","destinationUnit":{"$ref":"98"},"destinationKey":"0","guid":"a38efb6d-9787-4dce-a454-b9514bfba3db","$type":"Bolt.ValueConnection"},{"sourceUnit":{"$ref":"47"},"sourceKey":"value","destinationUnit":{"$ref":"60"},"destinationKey":"a","guid":"1a89e682-96f2-4dc7-8711-2aa1d379e941","$type":"Bolt.ValueConnection"},{"sourceUnit":{"$ref":"21"},"sourceKey":"result","destinationUnit":{"$ref":"19"},"destinationKey":"a","guid":"790b1aaf-a022-4102-8973-be61a9905aa2","$type":"Bolt.ValueConnection"},{"sourceUnit":{"$ref":"65"},"sourceKey":"result","destinationUnit":{"$ref":"79"},"destinationKey":"input","guid":"c3e71d8e-912a-468d-abc4-a93be0905c58","$type":"Bolt.ValueConnection"},{"sourceUnit":{"$ref":"39"},"sourceKey":"result","destinationUnit":{"$ref":"12"},"destinationKey":"a","guid":"a252bab3-d709-4e21-bb5a-da74e8b51117","$type":"Bolt.ValueConnection"},{"sourceUnit":{"$ref":"83"},"sourceKey":"result","destinationUnit":{"$ref":"24"},"destinationKey":"a","guid":"f8016f88-2c4b-4d95-a67b-0621fe066f8d","$type":"Bolt.ValueConnection"},{"sourceUnit":{"$ref":"45"},"sourceKey":"output","destinationUnit":{"$ref":"60"},"destinationKey":"b","guid":"4f1a7c9b-72b1-4979-be4f-2ef13e96b73c","$type":"Bolt.ValueConnection"},{"sourceUnit":{"$ref":"19"},"sourceKey":"product","destinationUnit":{"$ref":"14"},"destinationKey":"a","guid":"d7b05adf-6682-4d7a-a684-e0d918a97107","$type":"Bolt.ValueConnection"},{"sourceUnit":{"$ref":"12"},"sourceKey":"product","destinationUnit":{"$ref":"54"},"destinationKey":"a","guid":"c383c317-9a14-470b-ba82-153d4974fd72","$type":"Bolt.ValueConnection"},{"sourceUnit":{"$ref":"88"},"sourceKey":"product","destinationUnit":{"$ref":"24"},"destinationKey":"b","guid":"650ea689-172f-44bb-b878-8df855c0f98d","$type":"Bolt.ValueConnection"},{"sourceUnit":{"$ref":"49"},"sourceKey":"value","destinationUnit":{"$ref":"88"},"destinationKey":"a","guid":"b7d3295f-1e3d-4190-b636-6cd36ed35253","$type":"Bolt.ValueConnection"},{"sourceUnit":{"$ref":"79"},"sourceKey":"output","destinationUnit":{"$ref":"108"},"destinationKey":"a","guid":"e7ab254d-bf4b-43df-9f9f-dfa31630e185","$type":"Bolt.ValueConnection"},{"sourceUnit":{"$ref":"24"},"sourceKey":"product","destinationUnit":{"$ref":"93"},"destinationKey":"%translation","guid":"d252f3e2-3276-4f78-8d15-fb4f29a63d8b","$type":"Bolt.ValueConnection"},{"sourceUnit":{"$ref":"90"},"sourceKey":"value","destinationUnit":{"$ref":"103"},"destinationKey":"b","guid":"6aad07ea-c757-47fe-bbb3-cfcc24bcae71","$type":"Bolt.ValueConnection"},{"sourceUnit":{"$ref":"71"},"sourceKey":"result","destinationUnit":{"$ref":"74"},"destinationKey":"target","guid":"91063366-837c-4b79-930d-42febe4c5624","$type":"Bolt.ValueConnection"},{"sourceUnit":{"$ref":"60"},"sourceKey":"product","destinationUnit":{"$ref":"51"},"destinationKey":"%xAngle","guid":"2e450349-13a2-4f46-b0ca-707daf79587b","$type":"Bolt.ValueConnection"}],"$version":"A"}}}'
    _objectReferences:
    - {fileID: 7195491360290036909}
    - {fileID: 7195491360290036909}
--- !u!114 &7195491360290036910
MonoBehaviour:
  m_ObjectHideFlags: 0
  m_CorrespondingSourceObject: {fileID: 0}
  m_PrefabInstance: {fileID: 0}
  m_PrefabAsset: {fileID: 0}
  m_GameObject: {fileID: 7195491360290036914}
  m_Enabled: 0
  m_EditorHideFlags: 0
  m_Script: {fileID: 11500000, guid: bfef56d96722cc84d8123b7183f327cb, type: 3}
  m_Name: 
  m_EditorClassIdentifier: 
  direction: {x: 1, y: 0, z: 0}
  speed: 1
--- !u!114 &7195491360290036904
MonoBehaviour:
  m_ObjectHideFlags: 0
  m_CorrespondingSourceObject: {fileID: 0}
  m_PrefabInstance: {fileID: 0}
  m_PrefabAsset: {fileID: 0}
  m_GameObject: {fileID: 7195491360290036914}
  m_Enabled: 0
  m_EditorHideFlags: 0
  m_Script: {fileID: 11500000, guid: 9ff1762673d9e514a996b39451ddc840, type: 3}
  m_Name: 
  m_EditorClassIdentifier: 
  speed: 5
  angularSpeed: 30
--- !u!114 &7195491360290036907
MonoBehaviour:
  m_ObjectHideFlags: 0
  m_CorrespondingSourceObject: {fileID: 0}
  m_PrefabInstance: {fileID: 0}
  m_PrefabAsset: {fileID: 0}
  m_GameObject: {fileID: 7195491360290036914}
  m_Enabled: 0
  m_EditorHideFlags: 0
  m_Script: {fileID: 11500000, guid: 96f48e6736519c34e84870a70ec27f87, type: 3}
  m_Name: 
  m_EditorClassIdentifier: 
  direction: {x: 0, y: 1, z: 0}
  speed: 0.1
--- !u!114 &7195491360290036906
MonoBehaviour:
  m_ObjectHideFlags: 0
  m_CorrespondingSourceObject: {fileID: 0}
  m_PrefabInstance: {fileID: 0}
  m_PrefabAsset: {fileID: 0}
  m_GameObject: {fileID: 7195491360290036914}
  m_Enabled: 0
  m_EditorHideFlags: 0
  m_Script: {fileID: 11500000, guid: a6866f378b7565b49a579c5523858ff6, type: 3}
  m_Name: 
  m_EditorClassIdentifier: 
  axes: {x: 0, y: 1, z: 0}
  scaleUnits: 2
--- !u!114 &7195491360290036903
MonoBehaviour:
  m_ObjectHideFlags: 0
  m_CorrespondingSourceObject: {fileID: 0}
  m_PrefabInstance: {fileID: 0}
  m_PrefabAsset: {fileID: 0}
  m_GameObject: {fileID: 7195491360290036914}
  m_Enabled: 1
  m_EditorHideFlags: 0
  m_Script: {fileID: 11500000, guid: 88f6b6717e755f3418e181e2e4feb304, type: 3}
  m_Name: 
  m_EditorClassIdentifier: 
--- !u!143 &7195491360290036899
CharacterController:
  m_ObjectHideFlags: 0
  m_CorrespondingSourceObject: {fileID: 0}
  m_PrefabInstance: {fileID: 0}
  m_PrefabAsset: {fileID: 0}
  m_GameObject: {fileID: 7195491360290036914}
  m_Material: {fileID: 0}
  m_IsTrigger: 0
  m_Enabled: 1
  serializedVersion: 2
  m_Height: 2
  m_Radius: 0.5
  m_SlopeLimit: 45
  m_StepOffset: 0.3
  m_SkinWidth: 0.08
  m_MinMoveDistance: 0.001
  m_Center: {x: 0, y: 0, z: 0}
--- !u!114 &7195491360290036896
MonoBehaviour:
  m_ObjectHideFlags: 0
  m_CorrespondingSourceObject: {fileID: 0}
  m_PrefabInstance: {fileID: 0}
  m_PrefabAsset: {fileID: 0}
  m_GameObject: {fileID: 7195491360290036914}
  m_Enabled: 1
  m_EditorHideFlags: 0
  m_Script: {fileID: 11500000, guid: a4cc70291484e564593626d51f1e69e2, type: 3}
  m_Name: 
  m_EditorClassIdentifier: 
  speed: 5
  jumpHeight: 2
  forwardJumpFactor: 0.05
  Gravity: -9.8
  DashFactor: 2
  Drag: {x: 1, y: 2, z: 1}
  smoothTime: 0.15
--- !u!114 &7195491360290036897
MonoBehaviour:
  m_ObjectHideFlags: 0
  m_CorrespondingSourceObject: {fileID: 0}
  m_PrefabInstance: {fileID: 0}
  m_PrefabAsset: {fileID: 0}
  m_GameObject: {fileID: 7195491360290036914}
  m_Enabled: 1
  m_EditorHideFlags: 0
  m_Script: {fileID: 11500000, guid: 574d1c50a23b0cc4183ab134967eacd6, type: 3}
  m_Name: 
  m_EditorClassIdentifier: 
  camerasParent: {fileID: 7195491360806385868}
  hRotationSpeed: 100
  vRotationSpeed: 80
  maxVerticalAngle: 0
  minVerticalAngle: 0
  smoothTime: 0.05
--- !u!1 &7195491360484787437
GameObject:
  m_ObjectHideFlags: 0
  m_CorrespondingSourceObject: {fileID: 0}
  m_PrefabInstance: {fileID: 0}
  m_PrefabAsset: {fileID: 0}
  serializedVersion: 6
  m_Component:
  - component: {fileID: 7195491360484787436}
  m_Layer: 0
  m_Name: GameObject
  m_TagString: Untagged
  m_Icon: {fileID: 0}
  m_NavMeshLayer: 0
  m_StaticEditorFlags: 0
  m_IsActive: 1
--- !u!4 &7195491360484787436
Transform:
  m_ObjectHideFlags: 0
  m_CorrespondingSourceObject: {fileID: 0}
  m_PrefabInstance: {fileID: 0}
  m_PrefabAsset: {fileID: 0}
  m_GameObject: {fileID: 7195491360484787437}
  m_LocalRotation: {x: 0, y: 0, z: 0, w: 1}
  m_LocalPosition: {x: 0, y: 0, z: 0}
  m_LocalScale: {x: 1, y: 1, z: 1}
  m_Children:
  - {fileID: 7228625096029954394}
  m_Father: {fileID: 7195491360290036909}
  m_RootOrder: 1
  m_LocalEulerAnglesHint: {x: 0, y: 0, z: 0}
--- !u!1 &7195491360806385868
GameObject:
  m_ObjectHideFlags: 0
  m_CorrespondingSourceObject: {fileID: 0}
  m_PrefabInstance: {fileID: 0}
  m_PrefabAsset: {fileID: 0}
  serializedVersion: 6
  m_Component:
  - component: {fileID: 7195491360806385865}
  - component: {fileID: 7195491360806385870}
  - component: {fileID: 7195491360806385871}
  m_Layer: 0
  m_Name: FPSCamera
  m_TagString: MainCamera
  m_Icon: {fileID: 0}
  m_NavMeshLayer: 0
  m_StaticEditorFlags: 0
  m_IsActive: 1
--- !u!4 &7195491360806385865
Transform:
  m_ObjectHideFlags: 0
  m_CorrespondingSourceObject: {fileID: 0}
  m_PrefabInstance: {fileID: 0}
  m_PrefabAsset: {fileID: 0}
  m_GameObject: {fileID: 7195491360806385868}
  m_LocalRotation: {x: -0, y: 0.000100981444, z: -0, w: 1}
  m_LocalPosition: {x: 0.042, y: 2, z: 0.354}
  m_LocalScale: {x: 1, y: 1, z: 1}
  m_Children: []
  m_Father: {fileID: 7195491360290036909}
  m_RootOrder: 0
  m_LocalEulerAnglesHint: {x: 0, y: 0.012, z: 0}
--- !u!20 &7195491360806385870
Camera:
  m_ObjectHideFlags: 0
  m_CorrespondingSourceObject: {fileID: 0}
  m_PrefabInstance: {fileID: 0}
  m_PrefabAsset: {fileID: 0}
  m_GameObject: {fileID: 7195491360806385868}
  m_Enabled: 1
  serializedVersion: 2
  m_ClearFlags: 1
  m_BackGroundColor: {r: 0.19215687, g: 0.3019608, b: 0.4745098, a: 0}
  m_projectionMatrixMode: 1
  m_GateFitMode: 2
  m_FOVAxisMode: 0
  m_SensorSize: {x: 36, y: 24}
  m_LensShift: {x: 0, y: 0}
  m_FocalLength: 50
  m_NormalizedViewPortRect:
    serializedVersion: 2
    x: 0
    y: 0
    width: 1
    height: 1
  near clip plane: 0.3
  far clip plane: 1000
  field of view: 60
  orthographic: 0
  orthographic size: 5
  m_Depth: -1
  m_CullingMask:
    serializedVersion: 2
    m_Bits: 4294967295
  m_RenderingPath: -1
  m_TargetTexture: {fileID: 0}
  m_TargetDisplay: 0
  m_TargetEye: 3
  m_HDR: 1
  m_AllowMSAA: 1
  m_AllowDynamicResolution: 0
  m_ForceIntoRT: 0
  m_OcclusionCulling: 1
  m_StereoConvergence: 10
  m_StereoSeparation: 0.022
--- !u!81 &7195491360806385871
AudioListener:
  m_ObjectHideFlags: 0
  m_CorrespondingSourceObject: {fileID: 0}
  m_PrefabInstance: {fileID: 0}
  m_PrefabAsset: {fileID: 0}
  m_GameObject: {fileID: 7195491360806385868}
  m_Enabled: 1
--- !u!1001 &7195491359609554609
PrefabInstance:
  m_ObjectHideFlags: 0
  serializedVersion: 2
  m_Modification:
    m_TransformParent: {fileID: 7195491360484787436}
    m_Modifications:
    - target: {fileID: -8679921383154817045, guid: 3dafc8b819d604a489119b4649eb2989,
        type: 3}
      propertyPath: m_LocalPosition.x
      value: -0
      objectReference: {fileID: 0}
    - target: {fileID: -8679921383154817045, guid: 3dafc8b819d604a489119b4649eb2989,
        type: 3}
      propertyPath: m_LocalPosition.y
      value: -1
      objectReference: {fileID: 0}
    - target: {fileID: -8679921383154817045, guid: 3dafc8b819d604a489119b4649eb2989,
        type: 3}
      propertyPath: m_LocalPosition.z
      value: 0
      objectReference: {fileID: 0}
    - target: {fileID: -8679921383154817045, guid: 3dafc8b819d604a489119b4649eb2989,
        type: 3}
      propertyPath: m_LocalRotation.x
      value: 0
      objectReference: {fileID: 0}
    - target: {fileID: -8679921383154817045, guid: 3dafc8b819d604a489119b4649eb2989,
        type: 3}
      propertyPath: m_LocalRotation.y
      value: -0
      objectReference: {fileID: 0}
    - target: {fileID: -8679921383154817045, guid: 3dafc8b819d604a489119b4649eb2989,
        type: 3}
      propertyPath: m_LocalRotation.z
      value: -0
      objectReference: {fileID: 0}
    - target: {fileID: -8679921383154817045, guid: 3dafc8b819d604a489119b4649eb2989,
        type: 3}
      propertyPath: m_LocalRotation.w
      value: 1
      objectReference: {fileID: 0}
    - target: {fileID: -8679921383154817045, guid: 3dafc8b819d604a489119b4649eb2989,
        type: 3}
      propertyPath: m_RootOrder
      value: 0
      objectReference: {fileID: 0}
    - target: {fileID: -8679921383154817045, guid: 3dafc8b819d604a489119b4649eb2989,
        type: 3}
      propertyPath: m_LocalEulerAnglesHint.x
      value: 0
      objectReference: {fileID: 0}
    - target: {fileID: -8679921383154817045, guid: 3dafc8b819d604a489119b4649eb2989,
        type: 3}
      propertyPath: m_LocalEulerAnglesHint.y
      value: 0
      objectReference: {fileID: 0}
    - target: {fileID: -8679921383154817045, guid: 3dafc8b819d604a489119b4649eb2989,
        type: 3}
      propertyPath: m_LocalEulerAnglesHint.z
      value: 0
      objectReference: {fileID: 0}
    - target: {fileID: -8679921383154817045, guid: 3dafc8b819d604a489119b4649eb2989,
        type: 3}
      propertyPath: m_LocalScale.x
      value: 0.02
      objectReference: {fileID: 0}
    - target: {fileID: -8679921383154817045, guid: 3dafc8b819d604a489119b4649eb2989,
        type: 3}
      propertyPath: m_LocalScale.y
      value: 0.02
      objectReference: {fileID: 0}
    - target: {fileID: -8679921383154817045, guid: 3dafc8b819d604a489119b4649eb2989,
        type: 3}
      propertyPath: m_LocalScale.z
      value: 0.02
      objectReference: {fileID: 0}
    - target: {fileID: 919132149155446097, guid: 3dafc8b819d604a489119b4649eb2989,
        type: 3}
      propertyPath: m_Name
      value: hombre
      objectReference: {fileID: 0}
    m_RemovedComponents: []
  m_SourcePrefab: {fileID: 100100000, guid: 3dafc8b819d604a489119b4649eb2989, type: 3}
--- !u!4 &7228625096029954394 stripped
Transform:
  m_CorrespondingSourceObject: {fileID: -8679921383154817045, guid: 3dafc8b819d604a489119b4649eb2989,
    type: 3}
  m_PrefabInstance: {fileID: 7195491359609554609}
  m_PrefabAsset: {fileID: 0}
